311211 87900 443
423333 265028 449
178086 969690 525
135386 120794 344
301400 873261 525
214996 41119 383
83281 456282 449
25105 964867 525
768598 962046 525
940613 462210 525
631694 515919 509
334071 293260 384
416616 923656 525
967691 643629 525
86122 357326 443
368722 357973 410
306695 296927 371
796190 556879 509
39799 958831 525
348218 241163 441
287710 398601 441
836371 966765 525
391749 156727 443
126958 626410 509
978960 504049 525
130071 433738 449
991644 253311 525
891394 405083 525
800305 539445 509
791549 284000 509
49218 323332 443
397993 430633 449
956800 92902 525
296936 788898 509
524906 981281 525
900063 430208 525
293826 854275 525
677932 518121 509
405511 55576 443
593547 66775 470
275525 670653 509
162338 957938 525
745736 320760 509
828986 605040 509
823727 254131 509
132308 864275 525
401270 649765 509
240291 161204 443
703312 722402 504
284298 745033 509
258392 886527 525
574811 462315 470
54611 584464 470
490623 860077 525
521534 822758 509
254807 330029 407
761126 440725 509
297671 197534 443
319424 662754 509
294013 119916 443
763456 388794 509
824089 159759 509
423488 10620 449
84175 958811 525
202062 905739 525
17377 681285 509
533552 728427 509
956829 826544 525
883124 81558 525
813223 794895 468
373611 796449 509
188162 188956 316
271826 157931 443
395214 479298 449
117264 628967 509
270956 222203 443
906104 629040 525
732497 589574 509
885907 867658 432
867937 895147 445
921805 531 525
761830 12832 509
761633 285880 509
231300 823105 509
978966 210990 525
677153 394882 509
955856 790677 525
601737 364829 470
307414 401405 441
690734 391562 509
698052 761160 504
432431 342692 449
741406 134805 509
394638 25683 443
460994 613562 470
353911 456795 449
276797 23081 443
796530 201143 509
181858 625660 470
723828 908662 525
108741 296315 443
890016 436610 525
479388 876661 525
332353 629308 509
901503 917536 476
706358 516966 509
199260 776454 509
479595 656662 509
481861 197329 449
648265 893469 525
642298 154553 509
392096 398247 405
223583 141086 386
403893 296140 441
223936 181381 386
820519 429174 509
8738 214602 383
594464 925275 525
355675 694081 509
379938 295677 441
221707 282057 443
1070 924499 525
751133 597588 509
776980 602435 509
448331 582208 470
148005 684222 509
545492 565115 452
454366 81941 449
978365 249908 525
782664 831588 468
223102 981162 525
203092 333212 443
880388 498684 525
804647 548517 509
826120 638461 504
198448 191399 360
822213 656382 504
145962 315357 443
743939 140944 509
492988 326220 449
951050 774884 525
770784 272837 509
654605 317594 509
842725 141328 525
539731 453570 470
808891 473050 509
972945 319310 525
99796 805620 509
261555 351515 441
355788 825544 509
722015 100881 509
375283 954795 525
624208 902135 525
132303 394108 443
961227 62392 525
659066 884650 525
204305 976692 525
935086 288300 525
493167 430998 444
629482 937732 525
377932 597080 470
464002 147005 449
43767 914392 525
385800 438027 449
62687 398664 443
940513 44234 525
737638 296151 509
471029 972865 525
982656 640277 525
145704 631000 509
598850 497196 470
287791 84429 443
411232 344671 449
562210 168245 470
306165 44952 443
895869 186372 525
170241 319782 443
393466 100406 443
68835 717057 509
483438 72236 449
561450 996723 525
229783 324826 443
521666 67847 470
381104 19985 443
487713 23594 449
724557 371757 509
208194 502122 449
124130 6116 354
82103 583156 470
742701 618300 509
837337 148480 509
678608 791778 504
380318 98749 443
31210 959737 525
202348 660024 509
961499 491324 525
496188 977411 525
610225 391930 470
735755 920829 525
609498 725382 509
977381 1523 525
424403 184779 449
991122 571395 525
339744 203041 443
449728 814066 509
146617 678708 509
87471 924988 525
636931 794524 504
243215 237489 368
610612 825387 509
