632224 603576 509
61461 873552 525
508937 933455 525
45113 975556 525
285329 771376 509
34429 443304 449
340833 412691 449
159970 926701 525
315759 166521 443
313156 879026 525
905206 716490 525
337015 344456 366
928669 193294 525
258165 187317 443
363885 529912 470
958893 250783 525
363771 440396 449
808249 899506 525
610250 177601 470
941755 341198 525
132096 304796 443
812628 940015 525
184816 763674 509
150178 417802 449
992544 872360 507
545580 551866 452
849647 679654 525
267802 97342 443
329987 983862 525
314512 517002 470
705996 743836 424
774978 700782 504
308523 929697 525
873723 484713 525
87213 718988 509
919981 120426 525
708005 290386 509
243702 728246 509
593726 950199 525
922982 807684 525
828886 325920 509
544887 858258 525
454211 935135 525
458623 36625 449
287943 594962 470
438093 31043 449
150701 800411 509
635889 973369 525
524151 970159 525
60725 229051 386
279719 10695 443
59837 813113 509
954686 537181 525
279527 5463 443
402967 947421 525
729047 428164 509
22764 687388 509
8541 279399 443
150496 859196 525
503780 794822 509
999832 771077 525
670870 109700 509
148917 351788 443
985901 315956 525
119640 732980 509
118878 759969 509
335446 733096 509
819995 535839 509
191739 223723 386
426956 111434 449
374948 237634 441
545655 337996 470
341000 264299 407
183944 360295 443
607509 100345 470
611789 457131 470
526154 198544 470
547882 477391 470
348641 359985 379
799864 806986 406
83435 42844 351
964749 137784 525
98742 711241 509
819808 345145 509
105972 621286 470
530591 811448 509
402813 943464 525
603171 653134 509
388677 102302 443
874564 704839 525
903110 595049 525
930542 267236 525
103655 167022 383
762892 952640 525
841648 879296 432
364734 344654 441
259401 351839 441
476355 79761 449
397661 500188 449
212884 64523 383
491387 218080 449
232678 936017 525
274775 476397 449
222172 337577 443
888329 612368 525
469868 605065 470
169324 593779 470
258899 544685 470
595276 219695 470
740119 915342 525
860342 316204 525
206991 173471 373
742817 496874 509
295758 28392 443
593910 365986 470
239594 431828 449
227751 406980 443
785516 374469 509
749935 434355 509
419932 260863 449
453003 369739 449
145981 957596 525
194753 898512 525
253911 672208 509
367223 118319 443
909781 27834 525
619816 145415 470
10805 326697 443
450275 382369 449
187469 965002 525
18074 264440 443
178609 596482 470
223974 999204 525
988678 811972 525
212933 993905 525
522215 535605 408
404469 411470 449
303837 313325 384
777041 983193 525
305729 667535 509
264862 545760 470
487871 606873 470
716173 93448 509
169981 199504 365
678319 178464 509
406452 432023 449
59086 183140 383
658024 886991 525
397944 151508 443
554909 424603 470
424177 569720 470
51548 140528 354
570726 176783 470
796630 551068 509
177761 724326 509
775611 777558 393
434193 157398 449
833417 687944 504
744363 192826 509
402219 296554 441
376506 462694 449
185610 686205 509
58940 263413 443
832088 921187 525
670966 52074 509
705375 826664 468
437424 548955 470
690937 988160 525
6373 737970 509
286940 513454 470
121574 337774 443
129712 313288 443
430218 384614 449
356387 677958 509
404998 624109 470
11923 988279 525
610621 265435 470
587162 963127 525
63742 341085 443
927750 292920 525
870245 388691 525
799217 791119 468
798853 663806 504
672511 857872 525
145955 956767 525
348150 721462 509
255047 452510 449
602544 710095 509
878704 681885 525
311567 86386 443
925634 665551 525
6557 909248 525
796980 792986 468
603389 877019 525
275058 428603 449
429431 867739 525
257610 118235 443
989424 336239 525
34063 889855 525
101245 722721 509
46997 956393 525
478000 225034 449
54815 204250 383
454921 999848 525
742797 868403 525
400275 754937 509
732077 155661 509
701040 318689 509
905387 795443 525
879881 617774 525
130908 445305 449
466859 467046 369
598202 703762 509
865003 123908 525
706788 858973 525
912844 587618 525
475214 613661 470
48597 402208 443
443321 229299 449
557629 508809 470
102824 921149 525
542528 41223 470
660399 937967 525
218174 703210 509
836007 702472 504
114937 897946 525
956345 950606 414
599331 952905 525
763166 477194 509
162484 441654 449
851002 708768 525
173103 268160 443
48624 414034 449
494069 228146 449
690885 253461 509
35055 494877 449
302422 914952 525
134930 872089 525
132509 915746 525
500334 62581 449
538671 719242 509
556875 831192 509
573090 989980 525
543331 981437 525
497653 412540 444
169173 680760 509
271384 353844 441
834297 229039 509
910362 650405 525
610703 177174 470
345658 725005 509
132114 135745 344
390515 558209 470
446165 598270 470
391630 123510 443
457833 816138 509
605070 933187 525
545128 157105 470
294910 442638 449
559336 328754 470
810851 426845 509
574914 381631 470
688571 484292 509
753499 130598 509
281039 317797 389
900748 89863 525
741936 154535 509
533229 813266 509
419513 298783 449
210855 128875 383
361658 197476 443
424032 305041 449
690385 424155 509
663962 186301 509
306656 875427 525
736474 70482 509
56431 525713 470
61737 918971 525
380635 927395 525
25705 903714 525
35296 35523 311
689204 262325 509
43136 283728 443
132576 373032 443
967625 651243 525
391973 821307 509
855273 624502 525
795585 610330 509
945391 39683 525
877142 420383 525
466900 95615 449
829777 104080 509
797900 823837 450
815376 183275 509
825051 626506 504
799839 940527 525
454496 663829 509
41964 921170 525
704377 371854 509
579856 466013 470
